Midterm Notes
…
group_by(df2, sex)

# A tibble: 94 × 4
# Groups:   sex [3]
   timestamp          sex    height scaled_height
   <chr>              <chr>   <dbl>         <dbl>
 1 8/26/2025 7:23:17  Male       72          183.
 2 8/26/2025 14:51:26 Male      170          170 
 3 8/26/2025 14:51:26 Female    164          164 
 4 8/26/2025 14:51:31 Male       68          173.
 5 8/26/2025 14:51:31 Female    162          162 
 6 8/26/2025 14:51:32 Male      184          184 
 7 8/26/2025 14:51:32 Male      178          178 
 8 8/26/2025 14:51:33 Male       70          178.
 9 8/26/2025 14:51:34 Male      178          178 
10 8/26/2025 14:51:37 Male       73          185.
# ℹ 84 more rows
…
